{
  "multipart": [
    {
      "apply": {
        "model": "maddtech:block/item_cable"
      }
    },
    {
      "when": {
        "north": "true"
      },
      "apply": {
        "model": "maddtech:block/item_cable_c_c",
        "uvlock": true
      }
    },
    {
      "when": {
        "east": "true"
      },
      "apply": {
        "model": "maddtech:block/item_cable_c_c",
        "y": 90,
        "uvlock": true
      }
    },
    {
      "when": {
        "south": "true"
      },
      "apply": {
        "model": "maddtech:block/item_cable_c_c",
        "y": 180,
        "uvlock": true
      }
    },
    {
      "when": {
        "west": "true"
      },
      "apply": {
        "model": "maddtech:block/item_cable_c_c",
        "y": 270,
        "uvlock": true
      }
    },
        {
      "when": {
        "up": "true"
      },
      "apply": {
        "model": "maddtech:block/item_cable_c_c",
        "x": 270,
        "uvlock": true
      }
    },
    {
      "when": {
        "down": "true"
      },
      "apply": {
        "model": "maddtech:block/item_cable_c_c",
        "x": 90,
        "uvlock": true
      }
    }
  ]
}